…
``` r
print(ml_yearly)
```

    ## # A tibble: 510 × 5
    ##    team                  year payroll num_wins pct_wins
    ##    <fct>                <int>   <dbl>    <int>    <dbl>
    ##  1 Arizona Diamondbacks  1998    31.6       65    0.399
    ##  2 Arizona Diamondbacks  1999    70.5      100    0.613
    ##  3 Arizona Diamondbacks  2000    81.0       85    0.525
    ##  4 Arizona Diamondbacks  2001    81.2       92    0.568
    ##  5 Arizona Diamondbacks  2002   103.        98    0.605
    ##  6 Arizona Diamondbacks  2003    80.6       84    0.519
    ##  7 Arizona Diamondbacks  2004    70.2       51    0.315
    ##  8 Arizona Diamondbacks  2005    63.0       77    0.475
    ##  9 Arizona Diamondbacks  2006    59.7       76    0.469
    ## 10 Arizona Diamondbacks  2007    52.1       90    0.552
    ## # ℹ 500 more rows
…
