…
    ## # A tibble: 2 × 3
    ##   Dataset     Rows Columns
    ##   <chr>      <int>   <int>
    ## 1 who         7240      60
    ## 2 Population  4060       3

\##3. Tidy Data

``` r
print(population)
```

    ## # A tibble: 4,060 × 3
    ##    country      year population
    ##    <chr>       <dbl>      <dbl>
    ##  1 Afghanistan  1995   17586073
    ##  2 Afghanistan  1996   18415307
    ##  3 Afghanistan  1997   19021226
    ##  4 Afghanistan  1998   19496836
    ##  5 Afghanistan  1999   19987071
    ##  6 Afghanistan  2000   20595360
    ##  7 Afghanistan  2001   21347782
    ##  8 Afghanistan  2002   22202806
    ##  9 Afghanistan  2003   23116142
    ## 10 Afghanistan  2004   24018682
    ## # ℹ 4,050 more rows
…
``` r
population2 <- population %>% 
  distinct() %>% 
  drop_na(population)
population2
```

    ## # A tibble: 4,060 × 3
    ##    country      year population
    ##    <chr>       <dbl>      <dbl>
    ##  1 Afghanistan  1995   17586073
    ##  2 Afghanistan  1996   18415307
    ##  3 Afghanistan  1997   19021226
    ##  4 Afghanistan  1998   19496836
    ##  5 Afghanistan  1999   19987071
    ##  6 Afghanistan  2000   20595360
    ##  7 Afghanistan  2001   21347782
    ##  8 Afghanistan  2002   22202806
    ##  9 Afghanistan  2003   23116142
    ## 10 Afghanistan  2004   24018682
    ## # ℹ 4,050 more rows
…
``` r
who2 <- who %>%
  pivot_longer(
    cols = starts_with("new"), 
    names_to = "key",      
    values_to = "cases",       
    values_drop_na = TRUE      
  )

print(who2)
```

    ## # A tibble: 76,046 × 6
    ##    country     iso2  iso3   year key          cases
    ##    <chr>       <chr> <chr> <dbl> <chr>        <dbl>
    ##  1 Afghanistan AF    AFG    1997 new_sp_m014      0
    ##  2 Afghanistan AF    AFG    1997 new_sp_m1524    10
    ##  3 Afghanistan AF    AFG    1997 new_sp_m2534     6
    ##  4 Afghanistan AF    AFG    1997 new_sp_m3544     3
    ##  5 Afghanistan AF    AFG    1997 new_sp_m4554     5
    ##  6 Afghanistan AF    AFG    1997 new_sp_m5564     2
    ##  7 Afghanistan AF    AFG    1997 new_sp_m65       0
    ##  8 Afghanistan AF    AFG    1997 new_sp_f014      5
    ##  9 Afghanistan AF    AFG    1997 new_sp_f1524    38
    ## 10 Afghanistan AF    AFG    1997 new_sp_f2534    36
    ## # ℹ 76,036 more rows

``` r
library(tidyverse)

who3 <- who2 %>%
  mutate(
    key = str_replace(key, "newrel", "new_rel")  
  ) %>%
  separate(key, into = c("new", "type", "sex_age"), sep = "_", extra = "merge") %>%
  select(-new) 
print(who3)
```

    ## # A tibble: 76,046 × 7
    ##    country     iso2  iso3   year type  sex_age cases
    ##    <chr>       <chr> <chr> <dbl> <chr> <chr>   <dbl>
    ##  1 Afghanistan AF    AFG    1997 sp    m014        0
    ##  2 Afghanistan AF    AFG    1997 sp    m1524      10
    ##  3 Afghanistan AF    AFG    1997 sp    m2534       6
    ##  4 Afghanistan AF    AFG    1997 sp    m3544       3
    ##  5 Afghanistan AF    AFG    1997 sp    m4554       5
    ##  6 Afghanistan AF    AFG    1997 sp    m5564       2
    ##  7 Afghanistan AF    AFG    1997 sp    m65         0
    ##  8 Afghanistan AF    AFG    1997 sp    f014        5
    ##  9 Afghanistan AF    AFG    1997 sp    f1524      38
    ## 10 Afghanistan AF    AFG    1997 sp    f2534      36
    ## # ℹ 76,036 more rows
…
print(who_tidy)
```

    ## # A tibble: 76,046 × 8
    ##    country     iso2  iso3   year type  cases sex   age_group
    ##    <chr>       <chr> <chr> <dbl> <chr> <dbl> <chr> <chr>    
    ##  1 Afghanistan AF    AFG    1997 sp        0 m     0-14     
    ##  2 Afghanistan AF    AFG    1997 sp       10 m     15-24    
    ##  3 Afghanistan AF    AFG    1997 sp        6 m     25-34    
    ##  4 Afghanistan AF    AFG    1997 sp        3 m     35-44    
    ##  5 Afghanistan AF    AFG    1997 sp        5 m     45-54    
    ##  6 Afghanistan AF    AFG    1997 sp        2 m     55-64    
    ##  7 Afghanistan AF    AFG    1997 sp        0 m     65+      
    ##  8 Afghanistan AF    AFG    1997 sp        5 f     0-14     
    ##  9 Afghanistan AF    AFG    1997 sp       38 f     15-24    
    ## 10 Afghanistan AF    AFG    1997 sp       36 f     25-34    
    ## # ℹ 76,036 more rows
…
Since the population2 is already on a long format, we can just utilize
the original population2 for tidying.

``` r
population3 <- population2
population_tidy <- population3 %>%
  mutate(population = as.integer(population), year = as.integer(year))

print(population_tidy)
```

    ## # A tibble: 4,060 × 3
    ##    country      year population
    ##    <chr>       <int>      <int>
    ##  1 Afghanistan  1995   17586073
    ##  2 Afghanistan  1996   18415307
    ##  3 Afghanistan  1997   19021226
    ##  4 Afghanistan  1998   19496836
    ##  5 Afghanistan  1999   19987071
    ##  6 Afghanistan  2000   20595360
    ##  7 Afghanistan  2001   21347782
    ##  8 Afghanistan  2002   22202806
    ##  9 Afghanistan  2003   23116142
    ## 10 Afghanistan  2004   24018682
    ## # ℹ 4,050 more rows

Since both year and population could not have a floating number or a
decimal, it is appropriate to change and store both datatype as integer
to prevent any problems in analysis.

``` r
tuberculosis <- who_tidy %>%
  left_join(population_tidy, by = c("country", "year"))

print(tuberculosis)
```

    ## # A tibble: 76,046 × 9
    ##    country     iso2  iso3   year type  cases sex   age_group population
    ##    <chr>       <chr> <chr> <dbl> <chr> <dbl> <chr> <chr>          <int>
    ##  1 Afghanistan AF    AFG    1997 sp        0 m     0-14        19021226
    ##  2 Afghanistan AF    AFG    1997 sp       10 m     15-24       19021226
    ##  3 Afghanistan AF    AFG    1997 sp        6 m     25-34       19021226
    ##  4 Afghanistan AF    AFG    1997 sp        3 m     35-44       19021226
    ##  5 Afghanistan AF    AFG    1997 sp        5 m     45-54       19021226
    ##  6 Afghanistan AF    AFG    1997 sp        2 m     55-64       19021226
    ##  7 Afghanistan AF    AFG    1997 sp        0 m     65+         19021226
    ##  8 Afghanistan AF    AFG    1997 sp        5 f     0-14        19021226
    ##  9 Afghanistan AF    AFG    1997 sp       38 f     15-24       19021226
    ## 10 Afghanistan AF    AFG    1997 sp       36 f     25-34       19021226
    ## # ℹ 76,036 more rows

``` r
tuberculosis <- tuberculosis %>%
  select(-iso2, -iso3 )%>%
  drop_na()

print(tuberculosis)
```

    ## # A tibble: 75,234 × 7
    ##    country      year type  cases sex   age_group population
    ##    <chr>       <dbl> <chr> <dbl> <chr> <chr>          <int>
    ##  1 Afghanistan  1997 sp        0 m     0-14        19021226
    ##  2 Afghanistan  1997 sp       10 m     15-24       19021226
    ##  3 Afghanistan  1997 sp        6 m     25-34       19021226
    ##  4 Afghanistan  1997 sp        3 m     35-44       19021226
    ##  5 Afghanistan  1997 sp        5 m     45-54       19021226
    ##  6 Afghanistan  1997 sp        2 m     55-64       19021226
    ##  7 Afghanistan  1997 sp        0 m     65+         19021226
    ##  8 Afghanistan  1997 sp        5 f     0-14        19021226
    ##  9 Afghanistan  1997 sp       38 f     15-24       19021226
    ## 10 Afghanistan  1997 sp       36 f     25-34       19021226
    ## # ℹ 75,224 more rows
…
