…
``` r
library(ggplot2)
diamonds
```

    ## # A tibble: 53,940 × 10
    ##    carat cut       color clarity depth table price     x     y     z
    ##    <dbl> <ord>     <ord> <ord>   <dbl> <dbl> <int> <dbl> <dbl> <dbl>
    ##  1  0.23 Ideal     E     SI2      61.5    55   326  3.95  3.98  2.43
    ##  2  0.21 Premium   E     SI1      59.8    61   326  3.89  3.84  2.31
    ##  3  0.23 Good      E     VS1      56.9    65   327  4.05  4.07  2.31
    ##  4  0.29 Premium   I     VS2      62.4    58   334  4.2   4.23  2.63
    ##  5  0.31 Good      J     SI2      63.3    58   335  4.34  4.35  2.75
    ##  6  0.24 Very Good J     VVS2     62.8    57   336  3.94  3.96  2.48
    ##  7  0.24 Very Good I     VVS1     62.3    57   336  3.95  3.98  2.47
    ##  8  0.26 Very Good H     SI1      61.9    55   337  4.07  4.11  2.53
    ##  9  0.22 Fair      E     VS2      65.1    61   337  3.87  3.78  2.49
    ## 10  0.23 Very Good H     VS1      59.4    61   338  4     4.05  2.39
    ## # ℹ 53,930 more rows
…
**FIGURE 5.** The figure above is an example of a **scatterplot** fitted
with a regression line. The regression line helps to identify the
relationship and correlation between the two variables. According the
the graph, since most of the points are clustered in the regression line
given, then it shows a tight correlation between the two variables.

``` r
avg_price_by_carat <- diamonds %>%
mutate(carat = round(carat, 1)) %>%
group_by(carat) %>%
summarise(avg_price = mean(price))
avg_price_by_carat
```

    ## # A tibble: 38 × 2
    ##    carat avg_price
    ##    <dbl>     <dbl>
    ##  1   0.2      506.
    ##  2   0.3      709.
    ##  3   0.4      936.
    ##  4   0.5     1590.
    ##  5   0.6     1861.
    ##  6   0.7     2619.
    ##  7   0.8     2998.
    ##  8   0.9     3942.
    ##  9   1       5437.
    ## 10   1.1     6011.
    ## # ℹ 28 more rows
…
Answer: After filtering out the data, there are only 4 diamonds that fit
the descriptions given. The **filter()** provides an effective way to
identify what it is that is needed for a more easier data communication.

### b. select()

Exercise: Select all columns except x, y, z.

``` r
select(diamonds, -x,-y,-z)
```

    ## # A tibble: 53,940 × 7
    ##    carat cut       color clarity depth table price
    ##    <dbl> <ord>     <ord> <ord>   <dbl> <dbl> <int>
    ##  1  0.23 Ideal     E     SI2      61.5    55   326
    ##  2  0.21 Premium   E     SI1      59.8    61   326
    ##  3  0.23 Good      E     VS1      56.9    65   327
    ##  4  0.29 Premium   I     VS2      62.4    58   334
    ##  5  0.31 Good      J     SI2      63.3    58   335
    ##  6  0.24 Very Good J     VVS2     62.8    57   336
    ##  7  0.24 Very Good I     VVS1     62.3    57   336
    ##  8  0.26 Very Good H     SI1      61.9    55   337
    ##  9  0.22 Fair      E     VS2      65.1    61   337
    ## 10  0.23 Very Good H     VS1      59.4    61   338
    ## # ℹ 53,930 more rows

Answer: The **select()** function allows the user to isolate or remove
certain columns in a dataset. In a large database, select() provides a
way to easily navigate each column and provide only the desired data.

### arrange()

Exercise: Arrange diamonds in decreasing order of their length. How long
is the longest diamond?

``` r
arrange(diamonds, desc(x))
```

    ## # A tibble: 53,940 × 10
    ##    carat cut       color clarity depth table price     x     y     z
    ##    <dbl> <ord>     <ord> <ord>   <dbl> <dbl> <int> <dbl> <dbl> <dbl>
    ##  1  5.01 Fair      J     I1       65.5    59 18018 10.7  10.5   6.98
    ##  2  4.5  Fair      J     I1       65.8    58 18531 10.2  10.2   6.72
    ##  3  4.01 Premium   I     I1       61      61 15223 10.1  10.1   6.17
    ##  4  4.01 Premium   J     I1       62.5    62 15223 10.0   9.94  6.24
    ##  5  4    Very Good I     I1       63.3    58 15984 10.0   9.94  6.31
    ##  6  4.13 Fair      H     I1       64.8    61 17329 10     9.85  6.43
    ##  7  3.67 Premium   I     I1       62.4    56 16193  9.86  9.81  6.13
    ##  8  3.51 Premium   J     VS2      62.5    59 18701  9.66  9.63  6.03
    ##  9  3.5  Ideal     H     I1       62.8    57 12587  9.65  9.59  6.03
    ## 10  3.01 Fair      H     I1       56.1    62 10761  9.54  9.38  5.31
    ## # ℹ 53,930 more rows
…
## Deriving information

### a. mutate()

Exercise: Add a variable called good_color that is TRUE if the color is
D, E, F, G and FALSE otherwise

``` r
diamonds <- diamonds %>% mutate(good_color = case_when(color %in% c("D", "E", "F", "G") ~ "TRUE", TRUE ~ "FALSE"))
diamonds
```

    ## # A tibble: 53,940 × 11
    ##    carat cut       color clarity depth table price     x     y     z good_color
    ##    <dbl> <ord>     <ord> <ord>   <dbl> <dbl> <int> <dbl> <dbl> <dbl> <chr>     
    ##  1  0.23 Ideal     E     SI2      61.5    55   326  3.95  3.98  2.43 TRUE      
    ##  2  0.21 Premium   E     SI1      59.8    61   326  3.89  3.84  2.31 TRUE      
    ##  3  0.23 Good      E     VS1      56.9    65   327  4.05  4.07  2.31 TRUE      
    ##  4  0.29 Premium   I     VS2      62.4    58   334  4.2   4.23  2.63 FALSE     
    ##  5  0.31 Good      J     SI2      63.3    58   335  4.34  4.35  2.75 FALSE     
    ##  6  0.24 Very Good J     VVS2     62.8    57   336  3.94  3.96  2.48 FALSE     
    ##  7  0.24 Very Good I     VVS1     62.3    57   336  3.95  3.98  2.47 FALSE     
    ##  8  0.26 Very Good H     SI1      61.9    55   337  4.07  4.11  2.53 FALSE     
    ##  9  0.22 Fair      E     VS2      65.1    61   337  3.87  3.78  2.49 TRUE      
    ## 10  0.23 Very Good H     VS1      59.4    61   338  4     4.05  2.39 FALSE     
    ## # ℹ 53,930 more rows
…
**read_csv** from the tidyverse library provides a function that **reads
comma-separated values (csv)**. It arranges the data into columns with
the assumption that every first word is the title of the column or the
column names. It also provides an overview on the data types of each
column for easier understanding.

``` r
heights
```

    ## # A tibble: 1,192 × 6
    ##     earn height sex       ed   age race    
    ##    <dbl>  <dbl> <chr>  <dbl> <dbl> <chr>   
    ##  1 50000   74.4 male      16    45 white   
    ##  2 60000   65.5 female    16    58 white   
    ##  3 30000   63.6 female    16    29 white   
    ##  4 50000   63.1 female    16    91 other   
    ##  5 51000   63.4 female    17    39 white   
    ##  6  9000   64.4 female    15    26 white   
    ##  7 29000   61.7 female    12    49 white   
    ##  8 32000   72.7 male      17    46 white   
    ##  9  2000   72.0 male      15    21 hispanic
    ## 10 27000   72.2 male      12    26 white   
    ## # ℹ 1,182 more rows
…
